key,value
Recording Name,/Users/Michael/Documents/Michael/pycharm_projects/sachslab_vrproject/pupil_labs_unity3d/unity_pupil_plugin/2017_07_20
Start Time,16:37:46
Start Date,20.07.2017
World Camera Resolution,640x480
Capture Software Version,0.9.12.2
Data Format Version,0.9.12.2
System Info,"User: Michael, Platform: Windows, Machine: DESKTOP-H4IMJQF, Release: 10, Version: 10.0.14393"
Duration Time,00:02:25
World Camera Frames,16296
